Nombre empleado:Jose Perez
Entrada:30/04/2020 10:49:20 a. m.

Nombre empleado:Jose Perez
Salida:02/05/2020 10:49:20 a. m.

Nombre empleado:Alberto Lopez
Entrada:27/05/2020 10:49:20 a. m.

Nombre empleado:Alberto Lopez
Salida:29/05/2020 10:49:20 a. m.

